98,00 = 2        ]]
93,60 = 1        ]
92,90 = 2        ]]
91,40 = 1        ]
89,20 = 1        ]
89,70 = 2        ]]
90,70 = 2        ]]
100,90 = 1        ]
100,10 = 3        ]]]
102,00 = 1        ]
103,80 = 2        ]]
93,20 = 2        ]]
92,00 = 2        ]]
93,70 = 1        ]
88,43 = 1        ]
90,30 = 2        ]]
92,10 = 1        ]
99,40 = 1        ]
99,70 = 1        ]
99,20 = 1        ]
98,90 = 1        ]
100,80 = 1        ]
97,00 = 2        ]]
89,60 = 1        ]
85,50 = 1        ]
93,80 = 1        ]
92,30 = 1        ]
87,70 = 1        ]
96,30 = 1        ]
87,05 = 1        ]
88,80 = 3        ]]]
87,40 = 1        ]
90,80 = 2        ]]
94,80 = 3        ]]]
103,60 = 2        ]]
97,60 = 1        ]
95,50 = 1        ]
92,50 = 1        ]
87,90 = 2        ]]
93,00 = 1        ]
102,40 = 1        ]
103,70 = 1        ]
93,10 = 1        ]
92,80 = 1        ]
95,20 = 1        ]
96,00 = 1        ]
95,80 = 1        ]
88,10 = 1        ]
88,90 = 2        ]]
101,80 = 1        ]
102,60 = 1        ]
103,90 = 1        ]
104,00 = 1        ]
99,80 = 2        ]]
98,99 = 1        ]
100,70 = 1        ]
90,00 = 1        ]
90,40 = 1        ]
101,50 = 2        ]]
103,20 = 1        ]
102,70 = 1        ]
103,10 = 1        ]
94,30 = 1        ]
93,50 = 1        ]
95,30 = 1        ]
94,20 = 1        ]
98,50 = 1        ]
91,00 = 1        ]
94,40 = 1        ]
94,00 = 2        ]]
89,90 = 1        ]
