101,57 = 1        ]
101,80 = 1        ]
102,40 = 1        ]
100,60 = 3        ]]]
99,00 = 1        ]
99,50 = 1        ]
106,19 = 1        ]
103,32 = 1        ]
105,59 = 1        ]
108,14 = 1        ]
101,42 = 1        ]
104,18 = 1        ]
103,00 = 1        ]
103,92 = 1        ]
107,54 = 1        ]
105,03 = 1        ]
99,17 = 1        ]
86,75 = 1        ]
92,46 = 1        ]
81,15 = 1        ]
79,54 = 1        ]
72,58 = 1        ]
76,82 = 1        ]
89,43 = 1        ]
98,18 = 1        ]
105,98 = 1        ]
106,77 = 2        ]]
109,39 = 1        ]
108,64 = 1        ]
102,25 = 1        ]
111,61 = 1        ]
123,62 = 1        ]
114,70 = 1        ]
103,80 = 2        ]]
108,70 = 1        ]
108,40 = 1        ]
100,20 = 2        ]]
98,80 = 1        ]
93,10 = 1        ]
97,00 = 1        ]
98,30 = 1        ]
97,60 = 1        ]
100,26 = 1        ]
94,36 = 1        ]
94,18 = 1        ]
102,23 = 1        ]
105,95 = 1        ]
108,12 = 1        ]
108,50 = 1        ]
110,19 = 1        ]
95,34 = 1        ]
97,32 = 1        ]
40,74 = 1        ]
45,06 = 1        ]
47,85 = 1        ]
102,29 = 1        ]
94,20 = 1        ]
95,88 = 1        ]
95,52 = 2        ]]
101,92 = 1        ]
103,97 = 1        ]
103,45 = 1        ]
104,34 = 1        ]
104,62 = 1        ]
99,70 = 1        ]
101,20 = 1        ]
101,60 = 1        ]
90,95 = 1        ]
92,64 = 1        ]
94,15 = 1        ]
104,10 = 1        ]
103,50 = 1        ]
102,90 = 1        ]
104,00 = 1        ]
95,40 = 1        ]
94,90 = 1        ]
96,90 = 1        ]
95,80 = 1        ]
99,30 = 1        ]
89,00 = 1        ]
91,40 = 1        ]
98,90 = 1        ]
97,20 = 1        ]
98,40 = 1        ]
92,70 = 1        ]
93,30 = 1        ]
94,64 = 1        ]
