53,27 = 7        ]]]]]]]
45,25 = 5        ]]]]]
41,22 = 1        ]
38,74 = 4        ]]]]
41,23 = 4        ]]]]
Nan = 6        ]]]]]]
47,33 = 6        ]]]]]]
55,40 = 1        ]
43,40 = 2        ]]
38,59 = 4        ]]]]
40,39 = 6        ]]]]]]
39,49 = 2        ]]
42,86 = 4        ]]]]
39,02 = 5        ]]]]]
37,19 = 1        ]
36,75 = 4        ]]]]
37,21 = 5        ]]]]]
36,46 = 6        ]]]]]]
29,17 = 3        ]]]
40,35 = 5        ]]]]]
39,44 = 5        ]]]]]
35,28 = 5        ]]]]]
33,21 = 2        ]]
